RLoad/out.vcd
$date
    Thu Aug 16 23:02:43 2018
$end

$version
    2.1
$end

$timescale
      1 ps
$end

$scope module SystemC_AMS $end

$var real 1 !  signalInput $end
$var real 1 "  Output $end

$upscope $end

$enddefinitions $end


#0
r0.000000000000000 !
r0.000000000000000 "

#10000000
r0.2072087144467341 !
r0.1036043572233671 "

#20000000
r0.4135996707622041 !
r0.2067998353811020 "

#30000000
r0.6183583381328912 !
r0.3091791690664456 "

#40000000
r0.8206766276440208 !
r0.4103383138220104 "

#50000000
r1.019756081437326 !
r0.5098780407186632 "

#60000000
r1.214811023859437 !
r0.6074055119297186 "

#70000000
r1.405071662164740 !
r0.7025358310823698 "

#80000000
r1.589787124535661 !
r0.7948935622678303 "

#90000000
r1.768228423430689 !
r0.8841142117153444 "

#100000000
r1.939691332565161 !
r0.9698456662825806 "

#110000000
r2.103499166170676 !
r1.051749583085338 "

#120000000
r2.259005449564672 !
r1.129502724782336 "

#130000000
r2.405596470490658 !
r1.202798235245329 "

#140000000
r2.542693701160105 !
r1.271346850580052 "

#150000000
r2.669756081437326 !
r1.334878040718663 "

#160000000
r2.786282154156650 !
r1.393141077078325 "

#170000000
r2.891812044144749 !
r1.445906022072375 "

#180000000
r2.985929273137864 !
r1.492964636568932 "

#190000000
r3.068262403431229 !
r1.534131201715615 "

#200000000
r3.138486503774006 !
r1.569243251887003 "

#210000000
r3.196324431724483 !
r1.598162215862241 "

#220000000
r3.241547927404672 !
r1.620773963702336 "

#230000000
r3.273978514337777 !
r1.636989257168888 "

#240000000
r3.293488203813296 !
r1.646744101906648 "

#250000000
r3.300000000000000 !
r1.650000000000000 "

#260000000
r3.293488203813296 !
r1.646744101906648 "

#270000000
r3.273978514337777 !
r1.636989257168888 "

#280000000
r3.241547927404673 !
r1.620773963702336 "

#290000000
r3.196324431724483 !
r1.598162215862241 "

#300000000
r3.138486503774007 !
r1.569243251887003 "

#310000000
r3.068262403431230 !
r1.534131201715615 "

#320000000
r2.985929273137864 !
r1.492964636568932 "

#330000000
r2.891812044144749 !
r1.445906022072375 "

#340000000
r2.786282154156650 !
r1.393141077078325 "

#350000000
r2.669756081437326 !
r1.334878040718663 "

#360000000
r2.542693701160105 !
r1.271346850580052 "

#370000000
r2.405596470490658 !
r1.202798235245329 "

#380000000
r2.259005449564673 !
r1.129502724782337 "

#390000000
r2.103499166170675 !
r1.051749583085338 "

#400000000
r1.939691332565162 !
r0.9698456662825808 "

#410000000
r1.768228423430689 !
r0.8841142117153444 "

#420000000
r1.589787124535661 !
r0.7948935622678307 "

#430000000
r1.405071662164739 !
r0.7025358310823696 "

#440000000
r1.214811023859438 !
r0.6074055119297189 "

#450000000
r1.019756081437327 !
r0.5098780407186634 "

#460000000
r0.8206766276440208 !
r0.4103383138220104 "

#470000000
r0.6183583381328911 !
r0.3091791690664455 "

#480000000
r0.4135996707622049 !
r0.2067998353811025 "

#490000000
r0.2072087144467348 !
r0.1036043572233674 "

#500000000
r4.041334437186266e-16 !
r2.020667218593133e-16 "

#510000000
r-0.2072087144467340 !
r-0.1036043572233670 "

#520000000
r-0.4135996707622041 !
r-0.2067998353811021 "

#530000000
r-0.6183583381328916 !
r-0.3091791690664458 "

#540000000
r-0.8206766276440201 !
r-0.4103383138220100 "

#550000000
r-1.019756081437326 !
r-0.5098780407186629 "

#560000000
r-1.214811023859437 !
r-0.6074055119297186 "

#570000000
r-1.405071662164740 !
r-0.7025358310823698 "

#580000000
r-1.589787124535659 !
r-0.7948935622678297 "

#590000000
r-1.768228423430688 !
r-0.8841142117153441 "

#600000000
r-1.939691332565161 !
r-0.9698456662825804 "

#610000000
r-2.103499166170676 !
r-1.051749583085338 "

#620000000
r-2.259005449564671 !
r-1.129502724782336 "

#630000000
r-2.405596470490657 !
r-1.202798235245329 "

#640000000
r-2.542693701160105 !
r-1.271346850580052 "

#650000000
r-2.669756081437326 !
r-1.334878040718663 "

#660000000
r-2.786282154156650 !
r-1.393141077078325 "

#670000000
r-2.891812044144749 !
r-1.445906022072375 "

#680000000
r-2.985929273137863 !
r-1.492964636568932 "

#690000000
r-3.068262403431230 !
r-1.534131201715615 "

#700000000
r-3.138486503774006 !
r-1.569243251887003 "

#710000000
r-3.196324431724482 !
r-1.598162215862241 "

#720000000
r-3.241547927404673 !
r-1.620773963702336 "

#730000000
r-3.273978514337776 !
r-1.636989257168888 "

#740000000
r-3.293488203813296 !
r-1.646744101906648 "

#750000000
r-3.300000000000000 !
r-1.650000000000000 "

#760000000
r-3.293488203813296 !
r-1.646744101906648 "

#770000000
r-3.273978514337777 !
r-1.636989257168888 "

#780000000
r-3.241547927404672 !
r-1.620773963702336 "

#790000000
r-3.196324431724483 !
r-1.598162215862241 "

#800000000
r-3.138486503774007 !
r-1.569243251887003 "

#810000000
r-3.068262403431230 !
r-1.534131201715615 "

#820000000
r-2.985929273137864 !
r-1.492964636568932 "

#830000000
r-2.891812044144749 !
r-1.445906022072375 "

#840000000
r-2.786282154156651 !
r-1.393141077078325 "

#850000000
r-2.669756081437327 !
r-1.334878040718663 "

#860000000
r-2.542693701160104 !
r-1.271346850580052 "

#870000000
r-2.405596470490658 !
r-1.202798235245329 "

#880000000
r-2.259005449564673 !
r-1.129502724782337 "

#890000000
r-2.103499166170676 !
r-1.051749583085338 "

#900000000
r-1.939691332565162 !
r-0.9698456662825810 "

#910000000
r-1.768228423430688 !
r-0.8841142117153439 "

#920000000
r-1.589787124535661 !
r-0.7948935622678303 "

#930000000
r-1.405071662164741 !
r-0.7025358310823704 "

#940000000
r-1.214811023859437 !
r-0.6074055119297185 "

#950000000
r-1.019756081437327 !
r-0.5098780407186635 "

#960000000
r-0.8206766276440226 !
r-0.4103383138220113 "

#970000000
r-0.6183583381328914 !
r-0.3091791690664457 "

#980000000
r-0.4135996707622053 !
r-0.2067998353811027 "

#990000000
r-0.2072087144467367 !
r-0.1036043572233683 "

#1000000000
r-8.082668874372531e-16 !
r-4.041334437186266e-16 "

#1010000000
r0.2072087144467321 !
r0.1036043572233661 "

#1020000000
r0.4135996707622038 !
r0.2067998353811019 "

#1030000000
r0.6183583381328899 !
r0.3091791690664449 "

#1040000000
r0.8206766276440211 !
r0.4103383138220105 "

#1050000000
r1.019756081437328 !
r0.5098780407186642 "

#1060000000
r1.214811023859438 !
r0.6074055119297190 "

#1070000000
r1.405071662164737 !
r0.7025358310823684 "

#1080000000
r1.589787124535659 !
r0.7948935622678295 "

#1090000000
r1.768228423430687 !
r0.8841142117153433 "

#1100000000
r1.939691332565161 !
r0.9698456662825803 "

#1110000000
r2.103499166170677 !
r1.051749583085338 "

#1120000000
r2.259005449564672 !
r1.129502724782336 "

#1130000000
r2.405596470490659 !
r1.202798235245329 "

#1140000000
r2.542693701160105 !
r1.271346850580052 "

#1150000000
r2.669756081437328 !
r1.334878040718664 "

#1160000000
r2.786282154156649 !
r1.393141077078324 "

#1170000000
r2.891812044144749 !
r1.445906022072375 "

#1180000000
r2.985929273137863 !
r1.492964636568932 "

#1190000000
r3.068262403431230 !
r1.534131201715615 "

#1200000000
r3.138486503774006 !
r1.569243251887003 "

#1210000000
r3.196324431724483 !
r1.598162215862241 "

#1220000000
r3.241547927404672 !
r1.620773963702336 "

#1230000000
r3.273978514337777 !
r1.636989257168888 "

#1240000000
r3.293488203813296 !
r1.646744101906648 "

#1250000000
r3.300000000000000 !
r1.650000000000000 "

#1260000000
r3.293488203813296 !
r1.646744101906648 "

#1270000000
r3.273978514337777 !
r1.636989257168888 "

#1280000000
r3.241547927404672 !
r1.620773963702336 "

#1290000000
r3.196324431724483 !
r1.598162215862241 "

#1300000000
r3.138486503774007 !
r1.569243251887003 "

#1310000000
r3.068262403431228 !
r1.534131201715614 "

#1320000000
r2.985929273137863 !
r1.492964636568932 "

#1330000000
r2.891812044144752 !
r1.445906022072376 "

#1340000000
r2.786282154156650 !
r1.393141077078325 "

#1350000000
r2.669756081437327 !
r1.334878040718664 "

#1360000000
r2.542693701160106 !
r1.271346850580053 "

#1370000000
r2.405596470490656 !
r1.202798235245328 "

#1380000000
r2.259005449564671 !
r1.129502724782336 "

#1390000000
r2.103499166170676 !
r1.051749583085338 "

#1400000000
r1.939691332565162 !
r0.9698456662825810 "

#1410000000
r1.768228423430691 !
r0.8841142117153453 "

#1420000000
r1.589787124535663 !
r0.7948935622678317 "

#1430000000
r1.405071662164739 !
r0.7025358310823693 "

#1440000000
r1.214811023859437 !
r0.6074055119297186 "

#1450000000
r1.019756081437328 !
r0.5098780407186638 "

#1460000000
r0.8206766276440230 !
r0.4103383138220115 "

#1470000000
r0.6183583381328890 !
r0.3091791690664445 "

#1480000000
r0.4135996707622028 !
r0.2067998353811014 "

#1490000000
r0.2072087144467342 !
r0.1036043572233671 "

#1500000000
r1.212400331155880e-15 !
r6.062001655779398e-16 "

#1510000000
r-0.2072087144467318 !
r-0.1036043572233659 "

#1520000000
r-0.4135996707622004 !
r-0.2067998353811002 "

#1530000000
r-0.6183583381328923 !
r-0.3091791690664462 "

#1540000000
r-0.8206766276440207 !
r-0.4103383138220104 "

#1550000000
r-1.019756081437325 !
r-0.5098780407186626 "

#1560000000
r-1.214811023859440 !
r-0.6074055119297201 "

#1570000000
r-1.405071662164742 !
r-0.7025358310823708 "

#1580000000
r-1.589787124535656 !
r-0.7948935622678280 "

#1590000000
r-1.768228423430688 !
r-0.8841142117153442 "

#1600000000
r-1.939691332565160 !
r-0.9698456662825801 "

#1610000000
r-2.103499166170674 !
r-1.051749583085337 "

#1620000000
r-2.259005449564670 !
r-1.129502724782335 "

#1630000000
r-2.405596470490659 !
r-1.202798235245329 "

#1640000000
r-2.542693701160105 !
r-1.271346850580052 "

#1650000000
r-2.669756081437326 !
r-1.334878040718663 "

#1660000000
r-2.786282154156651 !
r-1.393141077078326 "

#1670000000
r-2.891812044144748 !
r-1.445906022072374 "

#1680000000
r-2.985929273137862 !
r-1.492964636568931 "

#1690000000
r-3.068262403431229 !
r-1.534131201715615 "

#1700000000
r-3.138486503774006 !
r-1.569243251887003 "

#1710000000
r-3.196324431724482 !
r-1.598162215862241 "

#1720000000
r-3.241547927404673 !
r-1.620773963702336 "

#1730000000
r-3.273978514337777 !
r-1.636989257168888 "

#1740000000
r-3.293488203813296 !
r-1.646744101906648 "

#1750000000
r-3.300000000000000 !
r-1.650000000000000 "

#1760000000
r-3.293488203813296 !
r-1.646744101906648 "

#1770000000
r-3.273978514337777 !
r-1.636989257168889 "

#1780000000
r-3.241547927404672 !
r-1.620773963702336 "

#1790000000
r-3.196324431724483 !
r-1.598162215862241 "

#1800000000
r-3.138486503774007 !
r-1.569243251887004 "

#1810000000
r-3.068262403431230 !
r-1.534131201715615 "

#1820000000
r-2.985929273137863 !
r-1.492964636568932 "

#1830000000
r-2.891812044144749 !
r-1.445906022072375 "

#1840000000
r-2.786282154156650 !
r-1.393141077078325 "

#1850000000
r-2.669756081437327 !
r-1.334878040718664 "

#1860000000
r-2.542693701160106 !
r-1.271346850580053 "

#1870000000
r-2.405596470490661 !
r-1.202798235245330 "

#1880000000
r-2.259005449564672 !
r-1.129502724782336 "

#1890000000
r-2.103499166170676 !
r-1.051749583085338 "

#1900000000
r-1.939691332565162 !
r-0.9698456662825812 "

#1910000000
r-1.768228423430686 !
r-0.8841142117153430 "

#1920000000
r-1.589787124535664 !
r-0.7948935622678319 "

#1930000000
r-1.405071662164744 !
r-0.7025358310823722 "

#1940000000
r-1.214811023859438 !
r-0.6074055119297188 "

#1950000000
r-1.019756081437328 !
r-0.5098780407186640 "

#1960000000
r-0.8206766276440234 !
r-0.4103383138220117 "

#1970000000
r-0.6183583381328951 !
r-0.3091791690664475 "

#1980000000
r-0.4135996707622090 !
r-0.2067998353811045 "

#1990000000
r-0.2072087144467404 !
r-0.1036043572233702 "

#2000000000
r-1.616533774874506e-15 !
r-8.082668874372531e-16 "

#2010000000
r0.2072087144467313 !
r0.1036043572233657 "

#2020000000
r0.4135996707622000 !
r0.2067998353811000 "

#2030000000
r0.6183583381328920 !
r0.3091791690664460 "

#2040000000
r0.8206766276440203 !
r0.4103383138220101 "

#2050000000
r1.019756081437325 !
r0.5098780407186625 "

#2060000000
r1.214811023859435 !
r0.6074055119297173 "

#2070000000
r1.405071662164741 !
r0.7025358310823707 "

#2080000000
r1.589787124535661 !
r0.7948935622678305 "

#2090000000
r1.768228423430688 !
r0.8841142117153441 "

#2100000000
r1.939691332565165 !
r0.9698456662825823 "

#2110000000
r2.103499166170678 !
r1.051749583085339 "

#2120000000
r2.259005449564674 !
r1.129502724782337 "

#2130000000
r2.405596470490655 !
r1.202798235245327 "

#2140000000
r2.542693701160101 !
r1.271346850580050 "

#2150000000
r2.669756081437325 !
r1.334878040718663 "

#2160000000
r2.786282154156648 !
r1.393141077078324 "

#2170000000
r2.891812044144748 !
r1.445906022072374 "

#2180000000
r2.985929273137862 !
r1.492964636568931 "

#2190000000
r3.068262403431229 !
r1.534131201715615 "

#2200000000
r3.138486503774006 !
r1.569243251887003 "

#2210000000
r3.196324431724482 !
r1.598162215862241 "

#2220000000
r3.241547927404673 !
r1.620773963702336 "

#2230000000
r3.273978514337777 !
r1.636989257168888 "

#2240000000
r3.293488203813296 !
r1.646744101906648 "

#2250000000
r3.300000000000000 !
r1.650000000000000 "

#2260000000
r3.293488203813296 !
r1.646744101906648 "

#2270000000
r3.273978514337776 !
r1.636989257168888 "

#2280000000
r3.241547927404672 !
r1.620773963702336 "

#2290000000
r3.196324431724481 !
r1.598162215862241 "

#2300000000
r3.138486503774006 !
r1.569243251887003 "

#2310000000
r3.068262403431231 !
r1.534131201715615 "

#2320000000
r2.985929273137866 !
r1.492964636568933 "

#2330000000
r2.891812044144752 !
r1.445906022072376 "

#2340000000
r2.786282154156650 !
r1.393141077078325 "

#2350000000
r2.669756081437328 !
r1.334878040718664 "

#2360000000
r2.542693701160106 !
r1.271346850580053 "

#2370000000
r2.405596470490661 !
r1.202798235245330 "

#2380000000
r2.259005449564672 !
r1.129502724782336 "

#2390000000
r2.103499166170677 !
r1.051749583085338 "

#2400000000
r1.939691332565163 !
r0.9698456662825814 "

#2410000000
r1.768228423430686 !
r0.8841142117153431 "

#2420000000
r1.589787124535659 !
r0.7948935622678295 "

#2430000000
r1.405071662164739 !
r0.7025358310823697 "

#2440000000
r1.214811023859438 !
r0.6074055119297190 "

#2450000000
r1.019756081437323 !
r0.5098780407186614 "

#2460000000
r0.8206766276440182 !
r0.4103383138220091 "

#2470000000
r0.6183583381328898 !
r0.3091791690664449 "

#2480000000
r0.4135996707622094 !
r0.2067998353811047 "

#2490000000
r0.2072087144467408 !
r0.1036043572233704 "

#2500000000
r2.020667218593133e-15 !
r1.010333609296566e-15 "

#2510000000
r-0.2072087144467309 !
r-0.1036043572233655 "

#2520000000
r-0.4135996707621996 !
r-0.2067998353810998 "

#2530000000
r-0.6183583381328858 !
r-0.3091791690664429 "

#2540000000
r-0.8206766276440198 !
r-0.4103383138220099 "

#2550000000
r-1.019756081437330 !
r-0.5098780407186650 "

#2560000000
r-1.214811023859440 !
r-0.6074055119297198 "

#2570000000
r-1.405071662164741 !
r-0.7025358310823705 "

#2580000000
r-1.589787124535661 !
r-0.7948935622678303 "

#2590000000
r-1.768228423430688 !
r-0.8841142117153441 "

#2600000000
r-1.939691332565159 !
r-0.9698456662825797 "

#2610000000
r-2.103499166170673 !
r-1.051749583085337 "

#2620000000
r-2.259005449564678 !
r-1.129502724782339 "

#2630000000
r-2.405596470490662 !
r-1.202798235245331 "

#2640000000
r-2.542693701160107 !
r-1.271346850580054 "

#2650000000
r-2.669756081437322 !
r-1.334878040718661 "

#2660000000
r-2.786282154156645 !
r-1.393141077078322 "

#2670000000
r-2.891812044144750 !
r-1.445906022072375 "

#2680000000
r-2.985929273137864 !
r-1.492964636568932 "

#2690000000
r-3.068262403431229 !
r-1.534131201715615 "

#2700000000
r-3.138486503774006 !
r-1.569243251887003 "

#2710000000
r-3.196324431724482 !
r-1.598162215862241 "

#2720000000
r-3.241547927404671 !
r-1.620773963702336 "

#2730000000
r-3.273978514337776 !
r-1.636989257168888 "

#2740000000
r-3.293488203813296 !
r-1.646744101906648 "

#2750000000
r-3.300000000000000 !
r-1.650000000000000 "

#2760000000
r-3.293488203813296 !
r-1.646744101906648 "

#2770000000
r-3.273978514337776 !
r-1.636989257168888 "

#2780000000
r-3.241547927404673 !
r-1.620773963702336 "

#2790000000
r-3.196324431724483 !
r-1.598162215862241 "

#2800000000
r-3.138486503774007 !
r-1.569243251887004 "

#2810000000
r-3.068262403431226 !
r-1.534131201715613 "

#2820000000
r-2.985929273137866 !
r-1.492964636568933 "

#2830000000
r-2.891812044144753 !
r-1.445906022072376 "

#2840000000
r-2.786282154156653 !
r-1.393141077078327 "

#2850000000
r-2.669756081437331 !
r-1.334878040718666 "

#2860000000
r-2.542693701160103 !
r-1.271346850580051 "

#2870000000
r-2.405596470490657 !
r-1.202798235245328 "

#2880000000
r-2.259005449564672 !
r-1.129502724782336 "

#2890000000
r-2.103499166170677 !
r-1.051749583085338 "

#2900000000
r-1.939691332565163 !
r-0.9698456662825815 "

#2910000000
r-1.768228423430692 !
r-0.8841142117153459 "

#2920000000
r-1.589787124535665 !
r-0.7948935622678323 "

#2930000000
r-1.405071662164734 !
r-0.7025358310823672 "

#2940000000
r-1.214811023859433 !
r-0.6074055119297165 "

#2950000000
r-1.019756081437323 !
r-0.5098780407186615 "

#2960000000
r-0.8206766276440185 !
r-0.4103383138220092 "

#2970000000
r-0.6183583381328901 !
r-0.3091791690664450 "

#2980000000
r-0.4135996707622041 !
r-0.2067998353811020 "

#2990000000
r-0.2072087144467354 !
r-0.1036043572233677 "

#3000000000
r-2.424800662311759e-15 !
r-1.212400331155880e-15 "

#3010000000
r0.2072087144467306 !
r0.1036043572233653 "

#3020000000
r0.4135996707621993 !
r0.2067998353810996 "

#3030000000
r0.6183583381328854 !
r0.3091791690664427 "

#3040000000
r0.8206766276440138 !
r0.4103383138220069 "

#3050000000
r1.019756081437330 !
r0.5098780407186648 "

#3060000000
r1.214811023859439 !
r0.6074055119297196 "

#3070000000
r1.405071662164741 !
r0.7025358310823703 "

#3080000000
r1.589787124535660 !
r0.7948935622678300 "

#3090000000
r1.768228423430688 !
r0.8841142117153439 "

#3100000000
r1.939691332565159 !
r0.9698456662825795 "

#3110000000
r2.103499166170673 !
r1.051749583085337 "

#3120000000
r2.259005449564678 !
r1.129502724782339 "

#3130000000
r2.405596470490662 !
r1.202798235245331 "

#3140000000
r2.542693701160107 !
r1.271346850580054 "

#3150000000
r2.669756081437328 !
r1.334878040718664 "

#3160000000
r2.786282154156644 !
r1.393141077078322 "

#3170000000
r2.891812044144745 !
r1.445906022072372 "

#3180000000
r2.985929273137864 !
r1.492964636568932 "

#3190000000
r3.068262403431229 !
r1.534131201715615 "

#3200000000
r3.138486503774006 !
r1.569243251887003 "

#3210000000
r3.196324431724482 !
r1.598162215862241 "

#3220000000
r3.241547927404671 !
r1.620773963702336 "

#3230000000
r3.273978514337776 !
r1.636989257168888 "

#3240000000
r3.293488203813296 !
r1.646744101906648 "

#3250000000
r3.300000000000000 !
r1.650000000000000 "

#3260000000
r3.293488203813296 !
r1.646744101906648 "

#3270000000
r3.273978514337776 !
r1.636989257168888 "

#3280000000
r3.241547927404673 !
r1.620773963702336 "

#3290000000
r3.196324431724483 !
r1.598162215862241 "

#3300000000
r3.138486503774008 !
r1.569243251887004 "

#3310000000
r3.068262403431227 !
r1.534131201715613 "

#3320000000
r2.985929273137862 !
r1.492964636568931 "

#3330000000
r2.891812044144753 !
r1.445906022072376 "

#3340000000
r2.786282154156654 !
r1.393141077078327 "

#3350000000
r2.669756081437332 !
r1.334878040718666 "

#3360000000
r2.542693701160111 !
r1.271346850580055 "

#3370000000
r2.405596470490657 !
r1.202798235245329 "

#3380000000
r2.259005449564673 !
r1.129502724782336 "

#3390000000
r2.103499166170677 !
r1.051749583085339 "

#3400000000
r1.939691332565163 !
r0.9698456662825817 "

#3410000000
r1.768228423430692 !
r0.8841142117153461 "

#3420000000
r1.589787124535665 !
r0.7948935622678325 "

#3430000000
r1.405071662164745 !
r0.7025358310823727 "

#3440000000
r1.214811023859433 !
r0.6074055119297166 "

#3450000000
r1.019756081437324 !
r0.5098780407186618 "

#3460000000
r0.8206766276440189 !
r0.4103383138220095 "

#3470000000
r0.6183583381328905 !
r0.3091791690664453 "

#3480000000
r0.4135996707622045 !
r0.2067998353811022 "

#3490000000
r0.2072087144467358 !
r0.1036043572233679 "

#3500000000
r2.828934106030386e-15 !
r1.414467053015193e-15 "

#3510000000
r-0.2072087144467301 !
r-0.1036043572233651 "

#3520000000
r-0.4135996707621988 !
r-0.2067998353810994 "

#3530000000
r-0.6183583381328850 !
r-0.3091791690664425 "

#3540000000
r-0.8206766276440135 !
r-0.4103383138220068 "

#3550000000
r-1.019756081437318 !
r-0.5098780407186591 "

#3560000000
r-1.214811023859439 !
r-0.6074055119297195 "

#3570000000
r-1.405071662164740 !
r-0.7025358310823702 "

#3580000000
r-1.589787124535660 !
r-0.7948935622678299 "

#3590000000
r-1.768228423430687 !
r-0.8841142117153437 "

#3600000000
r-1.939691332565159 !
r-0.9698456662825795 "

#3610000000
r-2.103499166170673 !
r-1.051749583085336 "

#3620000000
r-2.259005449564669 !
r-1.129502724782334 "

#3630000000
r-2.405596470490662 !
r-1.202798235245331 "

#3640000000
r-2.542693701160107 !
r-1.271346850580054 "

#3650000000
r-2.669756081437328 !
r-1.334878040718664 "

#3660000000
r-2.786282154156650 !
r-1.393141077078325 "

#3670000000
r-2.891812044144744 !
r-1.445906022072372 "

#3680000000
r-2.985929273137864 !
r-1.492964636568932 "

#3690000000
r-3.068262403431229 !
r-1.534131201715615 "

#3700000000
r-3.138486503774006 !
r-1.569243251887003 "

#3710000000
r-3.196324431724482 !
r-1.598162215862241 "

#3720000000
r-3.241547927404671 !
r-1.620773963702336 "

#3730000000
r-3.273978514337776 !
r-1.636989257168888 "

#3740000000
r-3.293488203813296 !
r-1.646744101906648 "

#3750000000
r-3.300000000000000 !
r-1.650000000000000 "

#3760000000
r-3.293488203813296 !
r-1.646744101906648 "

#3770000000
r-3.273978514337776 !
r-1.636989257168888 "

#3780000000
r-3.241547927404673 !
r-1.620773963702336 "

#3790000000
r-3.196324431724483 !
r-1.598162215862241 "

#3800000000
r-3.138486503774008 !
r-1.569243251887004 "

#3810000000
r-3.068262403431231 !
r-1.534131201715615 "

#3820000000
r-2.985929273137862 !
r-1.492964636568931 "

#3830000000
r-2.891812044144747 !
r-1.445906022072374 "

#3840000000
r-2.786282154156654 !
r-1.393141077078327 "

#3850000000
r-2.669756081437332 !
r-1.334878040718666 "

#3860000000
r-2.542693701160111 !
r-1.271346850580055 "

#3870000000
r-2.405596470490658 !
r-1.202798235245329 "

#3880000000
r-2.259005449564673 !
r-1.129502724782337 "

#3890000000
r-2.103499166170677 !
r-1.051749583085339 "

#3900000000
r-1.939691332565164 !
r-0.9698456662825820 "

#3910000000
r-1.768228423430693 !
r-0.8841142117153463 "

#3920000000
r-1.589787124535665 !
r-0.7948935622678326 "

#3930000000
r-1.405071662164746 !
r-0.7025358310823728 "

#3940000000
r-1.214811023859445 !
r-0.6074055119297223 "

#3950000000
r-1.019756081437324 !
r-0.5098780407186619 "

#3960000000
r-0.8206766276440307 !
r-0.4103383138220154 "

#3970000000
r-0.6183583381328910 !
r-0.3091791690664455 "

#3980000000
r-0.4135996707622165 !
r-0.2067998353811082 "

#3990000000
r-0.2072087144467362 !
r-0.1036043572233681 "

#4000000000
r-3.233067549749012e-15 !
r-1.616533774874506e-15 "

#4010000000
r0.2072087144467414 !
r0.1036043572233707 "

#4020000000
r0.4135996707621984 !
r0.2067998353810992 "

#4030000000
r0.6183583381328961 !
r0.3091791690664480 "

#4040000000
r0.8206766276440131 !
r0.4103383138220065 "

#4050000000
r1.019756081437329 !
r0.5098780407186645 "

#4060000000
r1.214811023859439 !
r0.6074055119297193 "

#4070000000
r1.405071662164740 !
r0.7025358310823699 "

#4080000000
r1.589787124535660 !
r0.7948935622678298 "

#4090000000
r1.768228423430677 !
r0.8841142117153385 "

#4100000000
r1.939691332565159 !
r0.9698456662825793 "

#4110000000
r2.103499166170673 !
r1.051749583085336 "

#4120000000
r2.259005449564668 !
r1.129502724782334 "

#4130000000
r2.405596470490653 !
r1.202798235245327 "

#4140000000
r2.542693701160107 !
r1.271346850580053 "

#4150000000
r2.669756081437321 !
r1.334878040718660 "

#4160000000
r2.786282154156650 !
r1.393141077078325 "

#4170000000
r2.891812044144744 !
r1.445906022072372 "

#4180000000
r2.985929273137863 !
r1.492964636568932 "

#4190000000
r3.068262403431229 !
r1.534131201715614 "

#4200000000
r3.138486503774009 !
r1.569243251887005 "

#4210000000
r3.196324431724481 !
r1.598162215862241 "

#4220000000
r3.241547927404674 !
r1.620773963702337 "

#4230000000
r3.273978514337776 !
r1.636989257168888 "

#4240000000
r3.293488203813296 !
r1.646744101906648 "

#4250000000
r3.300000000000000 !
r1.650000000000000 "

#4260000000
r3.293488203813297 !
r1.646744101906648 "

#4270000000
r3.273978514337777 !
r1.636989257168888 "

#4280000000
r3.241547927404675 !
r1.620773963702338 "

#4290000000
r3.196324431724483 !
r1.598162215862241 "

#4300000000
r3.138486503774008 !
r1.569243251887004 "

#4310000000
r3.068262403431231 !
r1.534131201715615 "

#4320000000
r2.985929273137867 !
r1.492964636568933 "

#4330000000
r2.891812044144748 !
r1.445906022072374 "

#4340000000
r2.786282154156654 !
r1.393141077078327 "

#4350000000
r2.669756081437325 !
r1.334878040718662 "

#4360000000
r2.542693701160111 !
r1.271346850580056 "

#4370000000
r2.405596470490658 !
r1.202798235245329 "

#4380000000
r2.259005449564673 !
r1.129502724782337 "

#4390000000
r2.103499166170669 !
r1.051749583085334 "

#4400000000
r1.939691332565164 !
r0.9698456662825821 "

#4410000000
r1.768228423430683 !
r0.8841142117153415 "

#4420000000
r1.589787124535665 !
r0.7948935622678327 "

#4430000000
r1.405071662164735 !
r0.7025358310823677 "

#4440000000
r1.214811023859434 !
r0.6074055119297169 "

#4450000000
r1.019756081437335 !
r0.5098780407186677 "

#4460000000
r0.8206766276440197 !
r0.4103383138220099 "

#4470000000
r0.6183583381329029 !
r0.3091791690664514 "

#4480000000
r0.4135996707622052 !
r0.2067998353811026 "

#4490000000
r0.2072087144467366 !
r0.1036043572233683 "

#4500000000
r3.637200993467639e-15 !
r1.818600496733820e-15 "

#4510000000
r-0.2072087144467293 !
r-0.1036043572233647 "

#4520000000
r-0.4135996707622097 !
r-0.2067998353811049 "

#4530000000
r-0.6183583381328842 !
r-0.3091791690664421 "

#4540000000
r-0.8206766276440239 !
r-0.4103383138220120 "

#4550000000
r-1.019756081437317 !
r-0.5098780407186587 "

#4560000000
r-1.214811023859438 !
r-0.6074055119297190 "

#4570000000
r-1.405071662164739 !
r-0.7025358310823697 "

#4580000000
r-1.589787124535669 !
r-0.7948935622678347 "

#4590000000
r-1.768228423430687 !
r-0.8841142117153433 "

#4600000000
r-1.939691332565168 !
r-0.9698456662825840 "

#4610000000
r-2.103499166170672 !
r-1.051749583085336 "

#4620000000
r-2.259005449564668 !
r-1.129502724782334 "

#4630000000
r-2.405596470490661 !
r-1.202798235245330 "

#4640000000
r-2.542693701160099 !
r-1.271346850580049 "

#4650000000
r-2.669756081437328 !
r-1.334878040718664 "

#4660000000
r-2.786282154156644 !
r-1.393141077078322 "

#4670000000
r-2.891812044144749 !
r-1.445906022072375 "

#4680000000
r-2.985929273137863 !
r-1.492964636568932 "

#4690000000
r-3.068262403431229 !
r-1.534131201715614 "

#4700000000
r-3.138486503774006 !
r-1.569243251887003 "

#4710000000
r-3.196324431724484 !
r-1.598162215862242 "

#4720000000
r-3.241547927404671 !
r-1.620773963702336 "

#4730000000
r-3.273978514337777 !
r-1.636989257168889 "

#4740000000
r-3.293488203813296 !
r-1.646744101906648 "

#4750000000
r-3.300000000000000 !
r-1.650000000000000 "

#4760000000
r-3.293488203813296 !
r-1.646744101906648 "

#4770000000
r-3.273978514337776 !
r-1.636989257168888 "

#4780000000
r-3.241547927404673 !
r-1.620773963702336 "

#4790000000
r-3.196324431724486 !
r-1.598162215862243 "

#4800000000
r-3.138486503774008 !
r-1.569243251887004 "

#4810000000
r-3.068262403431231 !
r-1.534131201715616 "

#4820000000
r-2.985929273137862 !
r-1.492964636568931 "

#4830000000
r-2.891812044144753 !
r-1.445906022072377 "

#4840000000
r-2.786282154156648 !
r-1.393141077078324 "

#4850000000
r-2.669756081437332 !
r-1.334878040718666 "

#4860000000
r-2.542693701160104 !
r-1.271346850580052 "

#4870000000
r-2.405596470490659 !
r-1.202798235245329 "

#4880000000
r-2.259005449564674 !
r-1.129502724782337 "

#4890000000
r-2.103499166170678 !
r-1.051749583085339 "

#4900000000
r-1.939691332565155 !
r-0.9698456662825775 "

#4910000000
r-1.768228423430693 !
r-0.8841142117153467 "

#4920000000
r-1.589787124535656 !
r-0.7948935622678278 "

#4930000000
r-1.405071662164747 !
r-0.7025358310823733 "

#4940000000
r-1.214811023859434 !
r-0.6074055119297171 "

#4950000000
r-1.019756081437325 !
r-0.5098780407186624 "

#4960000000
r-0.8206766276440315 !
r-0.4103383138220157 "

#4970000000
r-0.6183583381328916 !
r-0.3091791690664458 "

#4980000000
r-0.4135996707622173 !
r-0.2067998353811087 "

#4990000000
r-0.2072087144467370 !
r-0.1036043572233685 "


