bcpkp/RLoad/out.vcd
$date
    Mon Aug 20 19:21:22 2018
$end

$version
    2.1
$end

$timescale
      1 ps
$end

$scope module SystemC_AMS $end

$var real 1 !  signalInput $end
$var real 1 "  Output $end

$upscope $end

$enddefinitions $end


#0
r0.000000000000000 !
r0.000000000000000 "

#10000000
r0.1883715585879401 !
r0.09418577929397007 "

#20000000
r0.3759997006929128 !
r0.1879998503464564 "

#30000000
r0.5621439437571738 !
r0.2810719718785869 "

#40000000
r0.7460696614945643 !
r0.3730348307472822 "

#50000000
r0.9270509831248421 !
r0.4635254915624211 "

#60000000
r1.104373658054034 !
r0.5521868290270169 "

#70000000
r1.277337874695218 !
r0.6386689373476090 "

#80000000
r1.445261022305146 !
r0.7226305111525730 "

#90000000
r1.607480384936990 !
r0.8037401924684950 "

#100000000
r1.763355756877419 !
r0.8816778784387097 "

#110000000
r1.912271969246069 !
r0.9561359846230344 "

#120000000
r2.053641317786066 !
r1.026820658893033 "

#130000000
r2.186905882264234 !
r1.093452941132117 "

#140000000
r2.311539728327368 !
r1.155769864163684 "

#150000000
r2.427050983124842 !
r1.213525491562421 "

#160000000
r2.532983776506045 !
r1.266491888253023 "

#170000000
r2.628920040131591 !
r1.314460020065795 "

#180000000
r2.714481157398059 !
r1.357240578699029 "

#190000000
r2.789329457664754 !
r1.394664728832377 "

#200000000
r2.853169548885460 !
r1.426584774442730 "

#210000000
r2.905749483385893 !
r1.452874741692947 "

#220000000
r2.946861752186066 !
r1.473430876093033 "

#230000000
r2.976344103943434 !
r1.488172051971717 "

#240000000
r2.994080185284814 !
r1.497040092642407 "

#250000000
r3.000000000000000 !
r1.500000000000000 "

#260000000
r2.994080185284814 !
r1.497040092642407 "

#270000000
r2.976344103943434 !
r1.488172051971717 "

#280000000
r2.946861752186066 !
r1.473430876093033 "

#290000000
r2.905749483385894 !
r1.452874741692947 "

#300000000
r2.853169548885461 !
r1.426584774442730 "

#310000000
r2.789329457664754 !
r1.394664728832377 "

#320000000
r2.714481157398058 !
r1.357240578699029 "

#330000000
r2.628920040131590 !
r1.314460020065795 "

#340000000
r2.532983776506045 !
r1.266491888253023 "

#350000000
r2.427050983124842 !
r1.213525491562421 "

#360000000
r2.311539728327368 !
r1.155769864163684 "

#370000000
r2.186905882264234 !
r1.093452941132117 "

#380000000
r2.053641317786067 !
r1.026820658893033 "

#390000000
r1.912271969246069 !
r0.9561359846230343 "

#400000000
r1.763355756877420 !
r0.8816778784387098 "

#410000000
r1.607480384936990 !
r0.8037401924684950 "

#420000000
r1.445261022305147 !
r0.7226305111525734 "

#430000000
r1.277337874695218 !
r0.6386689373476088 "

#440000000
r1.104373658054034 !
r0.5521868290270172 "

#450000000
r0.9270509831248426 !
r0.4635254915624213 "

#460000000
r0.7460696614945644 !
r0.3730348307472822 "

#470000000
r0.5621439437571737 !
r0.2810719718785868 "

#480000000
r0.3759997006929136 !
r0.1879998503464568 "

#490000000
r0.1883715585879407 !
r0.09418577929397037 "

#500000000
r3.673940397442059e-16 !
r1.836970198721030e-16 "

#510000000
r-0.1883715585879400 !
r-0.09418577929397001 "

#520000000
r-0.3759997006929129 !
r-0.1879998503464564 "

#530000000
r-0.5621439437571742 !
r-0.2810719718785871 "

#540000000
r-0.7460696614945637 !
r-0.3730348307472818 "

#550000000
r-0.9270509831248419 !
r-0.4635254915624210 "

#560000000
r-1.104373658054034 !
r-0.5521868290270169 "

#570000000
r-1.277337874695218 !
r-0.6386689373476090 "

#580000000
r-1.445261022305145 !
r-0.7226305111525725 "

#590000000
r-1.607480384936989 !
r-0.8037401924684946 "

#600000000
r-1.763355756877419 !
r-0.8816778784387096 "

#610000000
r-1.912271969246069 !
r-0.9561359846230344 "

#620000000
r-2.053641317786065 !
r-1.026820658893033 "

#630000000
r-2.186905882264234 !
r-1.093452941132117 "

#640000000
r-2.311539728327368 !
r-1.155769864163684 "

#650000000
r-2.427050983124842 !
r-1.213525491562421 "

#660000000
r-2.532983776506046 !
r-1.266491888253023 "

#670000000
r-2.628920040131591 !
r-1.314460020065795 "

#680000000
r-2.714481157398058 !
r-1.357240578699029 "

#690000000
r-2.789329457664754 !
r-1.394664728832377 "

#700000000
r-2.853169548885460 !
r-1.426584774442730 "

#710000000
r-2.905749483385893 !
r-1.452874741692946 "

#720000000
r-2.946861752186066 !
r-1.473430876093033 "

#730000000
r-2.976344103943434 !
r-1.488172051971717 "

#740000000
r-2.994080185284814 !
r-1.497040092642407 "

#750000000
r-3.000000000000000 !
r-1.500000000000000 "

#760000000
r-2.994080185284814 !
r-1.497040092642407 "

#770000000
r-2.976344103943434 !
r-1.488172051971717 "

#780000000
r-2.946861752186066 !
r-1.473430876093033 "

#790000000
r-2.905749483385894 !
r-1.452874741692947 "

#800000000
r-2.853169548885461 !
r-1.426584774442730 "

#810000000
r-2.789329457664754 !
r-1.394664728832377 "

#820000000
r-2.714481157398059 !
r-1.357240578699029 "

#830000000
r-2.628920040131590 !
r-1.314460020065795 "

#840000000
r-2.532983776506047 !
r-1.266491888253023 "

#850000000
r-2.427050983124843 !
r-1.213525491562421 "

#860000000
r-2.311539728327367 !
r-1.155769864163684 "

#870000000
r-2.186905882264234 !
r-1.093452941132117 "

#880000000
r-2.053641317786067 !
r-1.026820658893033 "

#890000000
r-1.912271969246069 !
r-0.9561359846230344 "

#900000000
r-1.763355756877420 !
r-0.8816778784387100 "

#910000000
r-1.607480384936989 !
r-0.8037401924684945 "

#920000000
r-1.445261022305146 !
r-0.7226305111525730 "

#930000000
r-1.277337874695219 !
r-0.6386689373476095 "

#940000000
r-1.104373658054034 !
r-0.5521868290270168 "

#950000000
r-0.9270509831248428 !
r-0.4635254915624214 "

#960000000
r-0.7460696614945661 !
r-0.3730348307472831 "

#970000000
r-0.5621439437571740 !
r-0.2810719718785870 "

#980000000
r-0.3759997006929139 !
r-0.1879998503464570 "

#990000000
r-0.1883715585879425 !
r-0.09418577929397123 "

#1000000000
r-7.347880794884119e-16 !
r-3.673940397442059e-16 "

#1010000000
r0.1883715585879383 !
r0.09418577929396917 "

#1020000000
r0.3759997006929126 !
r0.1879998503464563 "

#1030000000
r0.5621439437571727 !
r0.2810719718785863 "

#1040000000
r0.7460696614945647 !
r0.3730348307472823 "

#1050000000
r0.9270509831248440 !
r0.4635254915624220 "

#1060000000
r1.104373658054035 !
r0.5521868290270173 "

#1070000000
r1.277337874695215 !
r0.6386689373476077 "

#1080000000
r1.445261022305145 !
r0.7226305111525724 "

#1090000000
r1.607480384936988 !
r0.8037401924684939 "

#1100000000
r1.763355756877419 !
r0.8816778784387094 "

#1110000000
r1.912271969246070 !
r0.9561359846230348 "

#1120000000
r2.053641317786066 !
r1.026820658893033 "

#1130000000
r2.186905882264235 !
r1.093452941132118 "

#1140000000
r2.311539728327368 !
r1.155769864163684 "

#1150000000
r2.427050983124843 !
r1.213525491562422 "

#1160000000
r2.532983776506044 !
r1.266491888253022 "

#1170000000
r2.628920040131591 !
r1.314460020065795 "

#1180000000
r2.714481157398058 !
r1.357240578699029 "

#1190000000
r2.789329457664754 !
r1.394664728832377 "

#1200000000
r2.853169548885460 !
r1.426584774442730 "

#1210000000
r2.905749483385894 !
r1.452874741692947 "

#1220000000
r2.946861752186066 !
r1.473430876093033 "

#1230000000
r2.976344103943434 !
r1.488172051971717 "

#1240000000
r2.994080185284814 !
r1.497040092642407 "

#1250000000
r3.000000000000000 !
r1.500000000000000 "

#1260000000
r2.994080185284814 !
r1.497040092642407 "

#1270000000
r2.976344103943434 !
r1.488172051971717 "

#1280000000
r2.946861752186066 !
r1.473430876093033 "

#1290000000
r2.905749483385893 !
r1.452874741692947 "

#1300000000
r2.853169548885461 !
r1.426584774442730 "

#1310000000
r2.789329457664753 !
r1.394664728832377 "

#1320000000
r2.714481157398058 !
r1.357240578699029 "

#1330000000
r2.628920040131593 !
r1.314460020065796 "

#1340000000
r2.532983776506045 !
r1.266491888253023 "

#1350000000
r2.427050983124843 !
r1.213525491562422 "

#1360000000
r2.311539728327369 !
r1.155769864163684 "

#1370000000
r2.186905882264233 !
r1.093452941132117 "

#1380000000
r2.053641317786065 !
r1.026820658893033 "

#1390000000
r1.912271969246069 !
r0.9561359846230346 "

#1400000000
r1.763355756877420 !
r0.8816778784387100 "

#1410000000
r1.607480384936992 !
r0.8037401924684958 "

#1420000000
r1.445261022305149 !
r0.7226305111525744 "

#1430000000
r1.277337874695217 !
r0.6386689373476084 "

#1440000000
r1.104373658054034 !
r0.5521868290270170 "

#1450000000
r0.9270509831248434 !
r0.4635254915624217 "

#1460000000
r0.7460696614945664 !
r0.3730348307472832 "

#1470000000
r0.5621439437571718 !
r0.2810719718785859 "

#1480000000
r0.3759997006929117 !
r0.1879998503464558 "

#1490000000
r0.1883715585879402 !
r0.09418577929397008 "

#1500000000
r1.102182119232618e-15 !
r5.510910596163090e-16 "

#1510000000
r-0.1883715585879380 !
r-0.09418577929396899 "

#1520000000
r-0.3759997006929096 !
r-0.1879998503464548 "

#1530000000
r-0.5621439437571749 !
r-0.2810719718785875 "

#1540000000
r-0.7460696614945643 !
r-0.3730348307472822 "

#1550000000
r-0.9270509831248412 !
r-0.4635254915624206 "

#1560000000
r-1.104373658054037 !
r-0.5521868290270184 "

#1570000000
r-1.277337874695220 !
r-0.6386689373476099 "

#1580000000
r-1.445261022305142 !
r-0.7226305111525710 "

#1590000000
r-1.607480384936990 !
r-0.8037401924684948 "

#1600000000
r-1.763355756877418 !
r-0.8816778784387092 "

#1610000000
r-1.912271969246067 !
r-0.9561359846230336 "

#1620000000
r-2.053641317786064 !
r-1.026820658893032 "

#1630000000
r-2.186905882264235 !
r-1.093452941132118 "

#1640000000
r-2.311539728327368 !
r-1.155769864163684 "

#1650000000
r-2.427050983124841 !
r-1.213525491562421 "

#1660000000
r-2.532983776506047 !
r-1.266491888253023 "

#1670000000
r-2.628920040131589 !
r-1.314460020065795 "

#1680000000
r-2.714481157398057 !
r-1.357240578699028 "

#1690000000
r-2.789329457664754 !
r-1.394664728832377 "

#1700000000
r-2.853169548885460 !
r-1.426584774442730 "

#1710000000
r-2.905749483385893 !
r-1.452874741692946 "

#1720000000
r-2.946861752186066 !
r-1.473430876093033 "

#1730000000
r-2.976344103943434 !
r-1.488172051971717 "

#1740000000
r-2.994080185284814 !
r-1.497040092642407 "

#1750000000
r-3.000000000000000 !
r-1.500000000000000 "

#1760000000
r-2.994080185284814 !
r-1.497040092642407 "

#1770000000
r-2.976344103943434 !
r-1.488172051971717 "

#1780000000
r-2.946861752186066 !
r-1.473430876093033 "

#1790000000
r-2.905749483385894 !
r-1.452874741692947 "

#1800000000
r-2.853169548885461 !
r-1.426584774442731 "

#1810000000
r-2.789329457664755 !
r-1.394664728832377 "

#1820000000
r-2.714481157398058 !
r-1.357240578699029 "

#1830000000
r-2.628920040131590 !
r-1.314460020065795 "

#1840000000
r-2.532983776506045 !
r-1.266491888253023 "

#1850000000
r-2.427050983124843 !
r-1.213525491562422 "

#1860000000
r-2.311539728327369 !
r-1.155769864163684 "

#1870000000
r-2.186905882264237 !
r-1.093452941132119 "

#1880000000
r-2.053641317786066 !
r-1.026820658893033 "

#1890000000
r-1.912271969246069 !
r-0.9561359846230346 "

#1900000000
r-1.763355756877421 !
r-0.8816778784387103 "

#1910000000
r-1.607480384936987 !
r-0.8037401924684937 "

#1920000000
r-1.445261022305149 !
r-0.7226305111525745 "

#1930000000
r-1.277337874695222 !
r-0.6386689373476111 "

#1940000000
r-1.104373658054034 !
r-0.5521868290270171 "

#1950000000
r-0.9270509831248437 !
r-0.4635254915624218 "

#1960000000
r-0.7460696614945668 !
r-0.3730348307472834 "

#1970000000
r-0.5621439437571774 !
r-0.2810719718785887 "

#1980000000
r-0.3759997006929173 !
r-0.1879998503464587 "

#1990000000
r-0.1883715585879458 !
r-0.09418577929397291 "

#2000000000
r-1.469576158976824e-15 !
r-7.347880794884119e-16 "

#2010000000
r0.1883715585879376 !
r0.09418577929396879 "

#2020000000
r0.3759997006929091 !
r0.1879998503464546 "

#2030000000
r0.5621439437571746 !
r0.2810719718785873 "

#2040000000
r0.7460696614945640 !
r0.3730348307472820 "

#2050000000
r0.9270509831248408 !
r0.4635254915624204 "

#2060000000
r1.104373658054032 !
r0.5521868290270158 "

#2070000000
r1.277337874695220 !
r0.6386689373476098 "

#2080000000
r1.445261022305146 !
r0.7226305111525732 "

#2090000000
r1.607480384936989 !
r0.8037401924684946 "

#2100000000
r1.763355756877422 !
r0.8816778784387111 "

#2110000000
r1.912271969246071 !
r0.9561359846230356 "

#2120000000
r2.053641317786067 !
r1.026820658893034 "

#2130000000
r2.186905882264231 !
r1.093452941132116 "

#2140000000
r2.311539728327364 !
r1.155769864163682 "

#2150000000
r2.427050983124841 !
r1.213525491562421 "

#2160000000
r2.532983776506044 !
r1.266491888253022 "

#2170000000
r2.628920040131589 !
r1.314460020065795 "

#2180000000
r2.714481157398057 !
r1.357240578699028 "

#2190000000
r2.789329457664754 !
r1.394664728832377 "

#2200000000
r2.853169548885460 !
r1.426584774442730 "

#2210000000
r2.905749483385892 !
r1.452874741692946 "

#2220000000
r2.946861752186066 !
r1.473430876093033 "

#2230000000
r2.976344103943434 !
r1.488172051971717 "

#2240000000
r2.994080185284814 !
r1.497040092642407 "

#2250000000
r3.000000000000000 !
r1.500000000000000 "

#2260000000
r2.994080185284814 !
r1.497040092642407 "

#2270000000
r2.976344103943434 !
r1.488172051971717 "

#2280000000
r2.946861752186066 !
r1.473430876093033 "

#2290000000
r2.905749483385892 !
r1.452874741692946 "

#2300000000
r2.853169548885460 !
r1.426584774442730 "

#2310000000
r2.789329457664755 !
r1.394664728832378 "

#2320000000
r2.714481157398060 !
r1.357240578699030 "

#2330000000
r2.628920040131593 !
r1.314460020065797 "

#2340000000
r2.532983776506045 !
r1.266491888253023 "

#2350000000
r2.427050983124843 !
r1.213525491562422 "

#2360000000
r2.311539728327369 !
r1.155769864163685 "

#2370000000
r2.186905882264237 !
r1.093452941132119 "

#2380000000
r2.053641317786066 !
r1.026820658893033 "

#2390000000
r1.912271969246070 !
r0.9561359846230348 "

#2400000000
r1.763355756877421 !
r0.8816778784387104 "

#2410000000
r1.607480384936988 !
r0.8037401924684938 "

#2420000000
r1.445261022305145 !
r0.7226305111525724 "

#2430000000
r1.277337874695218 !
r0.6386689373476089 "

#2440000000
r1.104373658054035 !
r0.5521868290270173 "

#2450000000
r0.9270509831248388 !
r0.4635254915624194 "

#2460000000
r0.7460696614945620 !
r0.3730348307472810 "

#2470000000
r0.5621439437571726 !
r0.2810719718785863 "

#2480000000
r0.3759997006929177 !
r0.1879998503464588 "

#2490000000
r0.1883715585879462 !
r0.09418577929397309 "

#2500000000
r1.836970198721030e-15 !
r9.184850993605150e-16 "

#2510000000
r-0.1883715585879372 !
r-0.09418577929396860 "

#2520000000
r-0.3759997006929088 !
r-0.1879998503464544 "

#2530000000
r-0.5621439437571689 !
r-0.2810719718785845 "

#2540000000
r-0.7460696614945636 !
r-0.3730348307472818 "

#2550000000
r-0.9270509831248455 !
r-0.4635254915624227 "

#2560000000
r-1.104373658054036 !
r-0.5521868290270180 "

#2570000000
r-1.277337874695219 !
r-0.6386689373476095 "

#2580000000
r-1.445261022305146 !
r-0.7226305111525730 "

#2590000000
r-1.607480384936989 !
r-0.8037401924684946 "

#2600000000
r-1.763355756877418 !
r-0.8816778784387089 "

#2610000000
r-1.912271969246067 !
r-0.9561359846230335 "

#2620000000
r-2.053641317786071 !
r-1.026820658893036 "

#2630000000
r-2.186905882264238 !
r-1.093452941132119 "

#2640000000
r-2.311539728327371 !
r-1.155769864163685 "

#2650000000
r-2.427050983124838 !
r-1.213525491562419 "

#2660000000
r-2.532983776506041 !
r-1.266491888253021 "

#2670000000
r-2.628920040131591 !
r-1.314460020065796 "

#2680000000
r-2.714481157398059 !
r-1.357240578699029 "

#2690000000
r-2.789329457664754 !
r-1.394664728832377 "

#2700000000
r-2.853169548885460 !
r-1.426584774442730 "

#2710000000
r-2.905749483385892 !
r-1.452874741692946 "

#2720000000
r-2.946861752186065 !
r-1.473430876093033 "

#2730000000
r-2.976344103943433 !
r-1.488172051971717 "

#2740000000
r-2.994080185284815 !
r-1.497040092642407 "

#2750000000
r-3.000000000000000 !
r-1.500000000000000 "

#2760000000
r-2.994080185284814 !
r-1.497040092642407 "

#2770000000
r-2.976344103943434 !
r-1.488172051971717 "

#2780000000
r-2.946861752186066 !
r-1.473430876093033 "

#2790000000
r-2.905749483385894 !
r-1.452874741692947 "

#2800000000
r-2.853169548885461 !
r-1.426584774442731 "

#2810000000
r-2.789329457664751 !
r-1.394664728832376 "

#2820000000
r-2.714481157398061 !
r-1.357240578699030 "

#2830000000
r-2.628920040131594 !
r-1.314460020065797 "

#2840000000
r-2.532983776506049 !
r-1.266491888253024 "

#2850000000
r-2.427050983124847 !
r-1.213525491562423 "

#2860000000
r-2.311539728327366 !
r-1.155769864163683 "

#2870000000
r-2.186905882264234 !
r-1.093452941132117 "

#2880000000
r-2.053641317786066 !
r-1.026820658893033 "

#2890000000
r-1.912271969246070 !
r-0.9561359846230350 "

#2900000000
r-1.763355756877421 !
r-0.8816778784387105 "

#2910000000
r-1.607480384936993 !
r-0.8037401924684964 "

#2920000000
r-1.445261022305150 !
r-0.7226305111525748 "

#2930000000
r-1.277337874695213 !
r-0.6386689373476065 "

#2940000000
r-1.104373658054030 !
r-0.5521868290270150 "

#2950000000
r-0.9270509831248392 !
r-0.4635254915624196 "

#2960000000
r-0.7460696614945623 !
r-0.3730348307472812 "

#2970000000
r-0.5621439437571729 !
r-0.2810719718785865 "

#2980000000
r-0.3759997006929128 !
r-0.1879998503464564 "

#2990000000
r-0.1883715585879412 !
r-0.09418577929397062 "

#3000000000
r-2.204364238465236e-15 !
r-1.102182119232618e-15 "

#3010000000
r0.1883715585879369 !
r0.09418577929396843 "

#3020000000
r0.3759997006929084 !
r0.1879998503464542 "

#3030000000
r0.5621439437571686 !
r0.2810719718785843 "

#3040000000
r0.7460696614945581 !
r0.3730348307472791 "

#3050000000
r0.9270509831248452 !
r0.4635254915624226 "

#3060000000
r1.104373658054036 !
r0.5521868290270179 "

#3070000000
r1.277337874695219 !
r0.6386689373476094 "

#3080000000
r1.445261022305146 !
r0.7226305111525728 "

#3090000000
r1.607480384936989 !
r0.8037401924684945 "

#3100000000
r1.763355756877417 !
r0.8816778784387087 "

#3110000000
r1.912271969246067 !
r0.9561359846230333 "

#3120000000
r2.053641317786071 !
r1.026820658893035 "

#3130000000
r2.186905882264238 !
r1.093452941132119 "

#3140000000
r2.311539728327371 !
r1.155769864163685 "

#3150000000
r2.427050983124844 !
r1.213525491562422 "

#3160000000
r2.532983776506041 !
r1.266491888253020 "

#3170000000
r2.628920040131586 !
r1.314460020065793 "

#3180000000
r2.714481157398058 !
r1.357240578699029 "

#3190000000
r2.789329457664754 !
r1.394664728832377 "

#3200000000
r2.853169548885460 !
r1.426584774442730 "

#3210000000
r2.905749483385892 !
r1.452874741692946 "

#3220000000
r2.946861752186065 !
r1.473430876093033 "

#3230000000
r2.976344103943433 !
r1.488172051971716 "

#3240000000
r2.994080185284814 !
r1.497040092642407 "

#3250000000
r3.000000000000000 !
r1.500000000000000 "

#3260000000
r2.994080185284814 !
r1.497040092642407 "

#3270000000
r2.976344103943434 !
r1.488172051971717 "

#3280000000
r2.946861752186066 !
r1.473430876093033 "

#3290000000
r2.905749483385894 !
r1.452874741692947 "

#3300000000
r2.853169548885462 !
r1.426584774442731 "

#3310000000
r2.789329457664752 !
r1.394664728832376 "

#3320000000
r2.714481157398056 !
r1.357240578699028 "

#3330000000
r2.628920040131594 !
r1.314460020065797 "

#3340000000
r2.532983776506049 !
r1.266491888253025 "

#3350000000
r2.427050983124847 !
r1.213525491562423 "

#3360000000
r2.311539728327373 !
r1.155769864163687 "

#3370000000
r2.186905882264234 !
r1.093452941132117 "

#3380000000
r2.053641317786066 !
r1.026820658893033 "

#3390000000
r1.912271969246070 !
r0.9561359846230351 "

#3400000000
r1.763355756877421 !
r0.8816778784387107 "

#3410000000
r1.607480384936993 !
r0.8037401924684965 "

#3420000000
r1.445261022305150 !
r0.7226305111525750 "

#3430000000
r1.277337874695223 !
r0.6386689373476115 "

#3440000000
r1.104373658054030 !
r0.5521868290270151 "

#3450000000
r0.9270509831248397 !
r0.4635254915624198 "

#3460000000
r0.7460696614945628 !
r0.3730348307472814 "

#3470000000
r0.5621439437571732 !
r0.2810719718785866 "

#3480000000
r0.3759997006929132 !
r0.1879998503464566 "

#3490000000
r0.1883715585879416 !
r0.09418577929397082 "

#3500000000
r2.571758278209442e-15 !
r1.285879139104721e-15 "

#3510000000
r-0.1883715585879365 !
r-0.09418577929396825 "

#3520000000
r-0.3759997006929080 !
r-0.1879998503464540 "

#3530000000
r-0.5621439437571683 !
r-0.2810719718785841 "

#3540000000
r-0.7460696614945577 !
r-0.3730348307472788 "

#3550000000
r-0.9270509831248347 !
r-0.4635254915624173 "

#3560000000
r-1.104373658054036 !
r-0.5521868290270178 "

#3570000000
r-1.277337874695218 !
r-0.6386689373476092 "

#3580000000
r-1.445261022305145 !
r-0.7226305111525727 "

#3590000000
r-1.607480384936989 !
r-0.8037401924684944 "

#3600000000
r-1.763355756877417 !
r-0.8816778784387087 "

#3610000000
r-1.912271969246066 !
r-0.9561359846230331 "

#3620000000
r-2.053641317786063 !
r-1.026820658893031 "

#3630000000
r-2.186905882264238 !
r-1.093452941132119 "

#3640000000
r-2.311539728327370 !
r-1.155769864163685 "

#3650000000
r-2.427050983124844 !
r-1.213525491562422 "

#3660000000
r-2.532983776506046 !
r-1.266491888253023 "

#3670000000
r-2.628920040131586 !
r-1.314460020065793 "

#3680000000
r-2.714481157398058 !
r-1.357240578699029 "

#3690000000
r-2.789329457664754 !
r-1.394664728832377 "

#3700000000
r-2.853169548885460 !
r-1.426584774442730 "

#3710000000
r-2.905749483385892 !
r-1.452874741692946 "

#3720000000
r-2.946861752186065 !
r-1.473430876093033 "

#3730000000
r-2.976344103943433 !
r-1.488172051971716 "

#3740000000
r-2.994080185284814 !
r-1.497040092642407 "

#3750000000
r-3.000000000000000 !
r-1.500000000000000 "

#3760000000
r-2.994080185284814 !
r-1.497040092642407 "

#3770000000
r-2.976344103943434 !
r-1.488172051971717 "

#3780000000
r-2.946861752186066 !
r-1.473430876093033 "

#3790000000
r-2.905749483385894 !
r-1.452874741692947 "

#3800000000
r-2.853169548885462 !
r-1.426584774442731 "

#3810000000
r-2.789329457664756 !
r-1.394664728832378 "

#3820000000
r-2.714481157398056 !
r-1.357240578699028 "

#3830000000
r-2.628920040131589 !
r-1.314460020065794 "

#3840000000
r-2.532983776506049 !
r-1.266491888253025 "

#3850000000
r-2.427050983124847 !
r-1.213525491562423 "

#3860000000
r-2.311539728327373 !
r-1.155769864163687 "

#3870000000
r-2.186905882264234 !
r-1.093452941132117 "

#3880000000
r-2.053641317786067 !
r-1.026820658893033 "

#3890000000
r-1.912271969246071 !
r-0.9561359846230353 "

#3900000000
r-1.763355756877422 !
r-0.8816778784387109 "

#3910000000
r-1.607480384936993 !
r-0.8037401924684966 "

#3920000000
r-1.445261022305150 !
r-0.7226305111525752 "

#3930000000
r-1.277337874695224 !
r-0.6386689373476118 "

#3940000000
r-1.104373658054041 !
r-0.5521868290270203 "

#3950000000
r-0.9270509831248400 !
r-0.4635254915624200 "

#3960000000
r-0.7460696614945734 !
r-0.3730348307472867 "

#3970000000
r-0.5621439437571736 !
r-0.2810719718785868 "

#3980000000
r-0.3759997006929241 !
r-0.1879998503464620 "

#3990000000
r-0.1883715585879420 !
r-0.09418577929397100 "

#4000000000
r-2.939152317953648e-15 !
r-1.469576158976824e-15 "

#4010000000
r0.1883715585879467 !
r0.09418577929397337 "

#4020000000
r0.3759997006929077 !
r0.1879998503464538 "

#4030000000
r0.5621439437571782 !
r0.2810719718785891 "

#4040000000
r0.7460696614945574 !
r0.3730348307472787 "

#4050000000
r0.9270509831248446 !
r0.4635254915624223 "

#4060000000
r1.104373658054035 !
r0.5521868290270175 "

#4070000000
r1.277337874695218 !
r0.6386689373476091 "

#4080000000
r1.445261022305145 !
r0.7226305111525726 "

#4090000000
r1.607480384936979 !
r0.8037401924684897 "

#4100000000
r1.763355756877417 !
r0.8816778784387085 "

#4110000000
r1.912271969246066 !
r0.9561359846230330 "

#4120000000
r2.053641317786062 !
r1.026820658893031 "

#4130000000
r2.186905882264230 !
r1.093452941132115 "

#4140000000
r2.311539728327370 !
r1.155769864163685 "

#4150000000
r2.427050983124837 !
r1.213525491562419 "

#4160000000
r2.532983776506046 !
r1.266491888253023 "

#4170000000
r2.628920040131586 !
r1.314460020065793 "

#4180000000
r2.714481157398058 !
r1.357240578699029 "

#4190000000
r2.789329457664754 !
r1.394664728832377 "

#4200000000
r2.853169548885463 !
r1.426584774442731 "

#4210000000
r2.905749483385892 !
r1.452874741692946 "

#4220000000
r2.946861752186067 !
r1.473430876093034 "

#4230000000
r2.976344103943433 !
r1.488172051971716 "

#4240000000
r2.994080185284815 !
r1.497040092642407 "

#4250000000
r3.000000000000000 !
r1.500000000000000 "

#4260000000
r2.994080185284815 !
r1.497040092642408 "

#4270000000
r2.976344103943434 !
r1.488172051971717 "

#4280000000
r2.946861752186068 !
r1.473430876093034 "

#4290000000
r2.905749483385894 !
r1.452874741692947 "

#4300000000
r2.853169548885462 !
r1.426584774442731 "

#4310000000
r2.789329457664756 !
r1.394664728832378 "

#4320000000
r2.714481157398061 !
r1.357240578699030 "

#4330000000
r2.628920040131589 !
r1.314460020065794 "

#4340000000
r2.532983776506049 !
r1.266491888253025 "

#4350000000
r2.427050983124841 !
r1.213525491562421 "

#4360000000
r2.311539728327374 !
r1.155769864163687 "

#4370000000
r2.186905882264234 !
r1.093452941132117 "

#4380000000
r2.053641317786067 !
r1.026820658893033 "

#4390000000
r1.912271969246063 !
r0.9561359846230313 "

#4400000000
r1.763355756877422 !
r0.8816778784387110 "

#4410000000
r1.607480384936985 !
r0.8037401924684924 "

#4420000000
r1.445261022305151 !
r0.7226305111525753 "

#4430000000
r1.277337874695214 !
r0.6386689373476071 "

#4440000000
r1.104373658054031 !
r0.5521868290270154 "

#4450000000
r0.9270509831248506 !
r0.4635254915624253 "

#4460000000
r0.7460696614945634 !
r0.3730348307472817 "

#4470000000
r0.5621439437571845 !
r0.2810719718785922 "

#4480000000
r0.3759997006929139 !
r0.1879998503464569 "

#4490000000
r0.1883715585879424 !
r0.09418577929397118 "

#4500000000
r3.306546357697854e-15 !
r1.653273178848927e-15 "

#4510000000
r-0.1883715585879358 !
r-0.09418577929396788 "

#4520000000
r-0.3759997006929179 !
r-0.1879998503464590 "

#4530000000
r-0.5621439437571675 !
r-0.2810719718785837 "

#4540000000
r-0.7460696614945673 !
r-0.3730348307472837 "

#4550000000
r-0.9270509831248340 !
r-0.4635254915624170 "

#4560000000
r-1.104373658054035 !
r-0.5521868290270173 "

#4570000000
r-1.277337874695218 !
r-0.6386689373476089 "

#4580000000
r-1.445261022305154 !
r-0.7226305111525770 "

#4590000000
r-1.607480384936988 !
r-0.8037401924684939 "

#4600000000
r-1.763355756877425 !
r-0.8816778784387127 "

#4610000000
r-1.912271969246066 !
r-0.9561359846230328 "

#4620000000
r-2.053641317786062 !
r-1.026820658893031 "

#4630000000
r-2.186905882264237 !
r-1.093452941132119 "

#4640000000
r-2.311539728327363 !
r-1.155769864163681 "

#4650000000
r-2.427050983124843 !
r-1.213525491562422 "

#4660000000
r-2.532983776506040 !
r-1.266491888253020 "

#4670000000
r-2.628920040131591 !
r-1.314460020065795 "

#4680000000
r-2.714481157398058 !
r-1.357240578699029 "

#4690000000
r-2.789329457664754 !
r-1.394664728832377 "

#4700000000
r-2.853169548885460 !
r-1.426584774442730 "

#4710000000
r-2.905749483385895 !
r-1.452874741692948 "

#4720000000
r-2.946861752186065 !
r-1.473430876093032 "

#4730000000
r-2.976344103943434 !
r-1.488172051971717 "

#4740000000
r-2.994080185284814 !
r-1.497040092642407 "

#4750000000
r-3.000000000000000 !
r-1.500000000000000 "

#4760000000
r-2.994080185284814 !
r-1.497040092642407 "

#4770000000
r-2.976344103943432 !
r-1.488172051971716 "

#4780000000
r-2.946861752186066 !
r-1.473430876093033 "

#4790000000
r-2.905749483385897 !
r-1.452874741692948 "

#4800000000
r-2.853169548885462 !
r-1.426584774442731 "

#4810000000
r-2.789329457664756 !
r-1.394664728832378 "

#4820000000
r-2.714481157398057 !
r-1.357240578699028 "

#4830000000
r-2.628920040131594 !
r-1.314460020065797 "

#4840000000
r-2.532983776506044 !
r-1.266491888253022 "

#4850000000
r-2.427050983124847 !
r-1.213525491562424 "

#4860000000
r-2.311539728327367 !
r-1.155769864163684 "

#4870000000
r-2.186905882264235 !
r-1.093452941132117 "

#4880000000
r-2.053641317786067 !
r-1.026820658893034 "

#4890000000
r-1.912271969246071 !
r-0.9561359846230356 "

#4900000000
r-1.763355756877414 !
r-0.8816778784387069 "

#4910000000
r-1.607480384936994 !
r-0.8037401924684970 "

#4920000000
r-1.445261022305141 !
r-0.7226305111525707 "

#4930000000
r-1.277337874695224 !
r-0.6386689373476121 "

#4940000000
r-1.104373658054031 !
r-0.5521868290270157 "

#4950000000
r-0.9270509831248407 !
r-0.4635254915624203 "

#4960000000
r-0.7460696614945741 !
r-0.3730348307472870 "

#4970000000
r-0.5621439437571742 !
r-0.2810719718785871 "

#4980000000
r-0.3759997006929249 !
r-0.1879998503464624 "

#4990000000
r-0.1883715585879427 !
r-0.09418577929397137 "

#5000000000
r-1.224646799147353e-15 !
r-6.123233995736766e-16 "

#5010000000
r0.06279051952931534 !
r0.03139525976465767 "

#5020000000
r0.1253332335643023 !
r0.06266661678215116 "

